{
    "key": "group_5988c5dcd9083",
    "title": "Serasa Vitrine DA - Configurações Gerais",
    "fields": [
        {
            "key": "field_5989c09797447",
            "label": "Slider Home",
            "name": "",
            "type": "tab",
            "instructions": "",
            "required": 0,
            "conditional_logic": 0,
            "wrapper": {
                "width": "",
                "class": "",
                "id": ""
            },
            "placement": "top",
            "endpoint": 0
        },
        {
            "key": "field_56e2f828137a5",
            "label": "Slider Home",
            "name": "slides_home",
            "type": "repeater",
            "instructions": "",
            "required": 0,
            "conditional_logic": 0,
            "wrapper": {
                "width": "",
                "class": "",
                "id": ""
            },
            "collapsed": "",
            "min": 0,
            "max": 0,
            "layout": "block",
            "button_label": "Adicionar",
            "sub_fields": [
                {
                    "key": "field_56e2f869137a6",
                    "label": "Imagem",
                    "name": "imagem",
                    "type": "image",
                    "instructions": "",
                    "required": 0,
                    "conditional_logic": 0,
                    "wrapper": {
                        "width": "",
                        "class": "",
                        "id": ""
                    },
                    "return_format": "array",
                    "preview_size": "thumbnail",
                    "library": "all",
                    "min_width": "",
                    "min_height": "",
                    "min_size": "",
                    "max_width": "",
                    "max_height": "",
                    "max_size": "",
                    "mime_types": ""
                },
                {
                    "key": "field_592c21ec48ec4",
                    "label": "Data-art",
                    "name": "data_art",
                    "type": "image",
                    "instructions": "",
                    "required": 0,
                    "conditional_logic": 0,
                    "wrapper": {
                        "width": "",
                        "class": "",
                        "id": ""
                    },
                    "return_format": "array",
                    "preview_size": "thumbnail",
                    "library": "all",
                    "min_width": "",
                    "min_height": "",
                    "min_size": "",
                    "max_width": "",
                    "max_height": "",
                    "max_size": "",
                    "mime_types": ""
                },
                {
                    "key": "field_56e2fab009d7a",
                    "label": "Link",
                    "name": "link",
                    "type": "text",
                    "instructions": "",
                    "required": 0,
                    "conditional_logic": 0,
                    "wrapper": {
                        "width": "",
                        "class": "",
                        "id": ""
                    },
                    "default_value": "",
                    "maxlength": "",
                    "placeholder": "",
                    "prepend": "",
                    "append": "",
                    "formatting": "html",
                    "readonly": 0,
                    "disabled": 0
                },
                {
                    "key": "field_56e2facc09d7b",
                    "label": "Abrir link em nova aba",
                    "name": "nova_aba",
                    "type": "radio",
                    "instructions": "",
                    "required": 0,
                    "conditional_logic": 0,
                    "wrapper": {
                        "width": "",
                        "class": "",
                        "id": ""
                    },
                    "layout": "vertical",
                    "choices": {
                        "_self": "Não",
                        "_blank": "Sim"
                    },
                    "default_value": "_self",
                    "other_choice": 0,
                    "save_other_choice": 0,
                    "allow_null": 0,
                    "return_format": "value"
                },
                {
                    "key": "field_58ee4525fad66",
                    "label": "Título",
                    "name": "titulo",
                    "type": "text",
                    "instructions": "",
                    "required": 0,
                    "conditional_logic": 0,
                    "wrapper": {
                        "width": "",
                        "class": "",
                        "id": ""
                    },
                    "default_value": "",
                    "maxlength": "",
                    "placeholder": "",
                    "prepend": "",
                    "append": ""
                },
                {
                    "key": "field_56e2faf009d7c",
                    "label": "Texto",
                    "name": "texto",
                    "type": "textarea",
                    "instructions": "",
                    "required": 0,
                    "conditional_logic": 0,
                    "wrapper": {
                        "width": "",
                        "class": "",
                        "id": ""
                    },
                    "default_value": "",
                    "new_lines": "wpautop",
                    "maxlength": "",
                    "placeholder": "",
                    "rows": "",
                    "readonly": 0,
                    "disabled": 0
                },
                {
                    "key": "field_56e2fb1d09d7e",
                    "label": "Texto do Botão",
                    "name": "texto_btn",
                    "type": "text",
                    "instructions": "",
                    "required": 0,
                    "conditional_logic": 0,
                    "wrapper": {
                        "width": "",
                        "class": "",
                        "id": ""
                    },
                    "default_value": "",
                    "maxlength": "",
                    "placeholder": "",
                    "prepend": "",
                    "append": "",
                    "readonly": 0,
                    "disabled": 0
                },
                {
                    "key": "field_58ee4547fad67",
                    "label": "Cor do botão",
                    "name": "cor_btn",
                    "type": "select",
                    "instructions": "",
                    "required": 0,
                    "conditional_logic": 0,
                    "wrapper": {
                        "width": "",
                        "class": "",
                        "id": ""
                    },
                    "choices": {
                        "roxo": "Roxo",
                        "azul": "Azul"
                    },
                    "default_value": [],
                    "allow_null": 0,
                    "multiple": 0,
                    "ui": 0,
                    "ajax": 0,
                    "return_format": "value",
                    "placeholder": ""
                }
            ]
        },
        {
            "key": "field_5989c0aa97448",
            "label": "Bloco de Telefone",
            "name": "",
            "type": "tab",
            "instructions": "",
            "required": 0,
            "conditional_logic": 0,
            "wrapper": {
                "width": "",
                "class": "",
                "id": ""
            },
            "placement": "top",
            "endpoint": 0
        },
        {
            "key": "field_5989c0cce9b83",
            "label": "Texto da Parte Superior",
            "name": "texto_superior_telefone",
            "type": "text",
            "instructions": "Exemplo de mensagem: \"Para conhecer nossos serviços, ligue:\".",
            "required": 0,
            "conditional_logic": 0,
            "wrapper": {
                "width": "",
                "class": "",
                "id": ""
            },
            "default_value": "",
            "placeholder": "",
            "prepend": "",
            "append": "",
            "maxlength": ""
        },
        {
            "key": "field_5989c113e9b84",
            "label": "Número para Capitais e Regiões",
            "name": "numero_capitais",
            "type": "text",
            "instructions": "Número para capitais e regiões metropolitanas.",
            "required": 0,
            "conditional_logic": 0,
            "wrapper": {
                "width": "",
                "class": "",
                "id": ""
            },
            "default_value": "",
            "placeholder": "",
            "prepend": "",
            "append": "",
            "maxlength": ""
        },
        {
            "key": "field_5989c178e9b85",
            "label": "Número para Demais Locais",
            "name": "numero_locais",
            "type": "text",
            "instructions": "Número para demais localidades, exclusivo para chamadas de telefone fixo.",
            "required": 0,
            "conditional_logic": 0,
            "wrapper": {
                "width": "",
                "class": "",
                "id": ""
            },
            "default_value": "",
            "placeholder": "",
            "prepend": "",
            "append": "",
            "maxlength": ""
        },
        {
            "key": "field_59c947eb97ceb",
            "label": "Blog (Configurações Gerais)",
            "name": "",
            "type": "tab",
            "instructions": "",
            "required": 0,
            "conditional_logic": 0,
            "wrapper": {
                "width": "",
                "class": "",
                "id": ""
            },
            "placement": "top",
            "endpoint": 0
        },
        {
            "key": "field_59c9480797cec",
            "label": "Título do Blog",
            "name": "titulo_do_blog",
            "type": "text",
            "instructions": "Adição do título, que irá aparecer no banner da home do blog.",
            "required": 0,
            "conditional_logic": 0,
            "wrapper": {
                "width": "",
                "class": "",
                "id": ""
            },
            "default_value": "",
            "placeholder": "",
            "prepend": "",
            "append": "",
            "maxlength": ""
        },
        {
            "key": "field_59c94bbca1773",
            "label": "Subtítulo do Blog",
            "name": "subtitulo_do_blog",
            "type": "text",
            "instructions": "Adição do subtítulo, que irá aparecer no banner da home do blog.",
            "required": 0,
            "conditional_logic": 0,
            "wrapper": {
                "width": "",
                "class": "",
                "id": ""
            },
            "default_value": "",
            "placeholder": "",
            "prepend": "",
            "append": "",
            "maxlength": ""
        }
    ],
    "location": [
        [
            {
                "param": "options_page",
                "operator": "==",
                "value": "acf-options-pagina-inicial"
            }
        ]
    ],
    "menu_order": 0,
    "position": "normal",
    "style": "default",
    "label_placement": "top",
    "instruction_placement": "label",
    "hide_on_screen": "",
    "active": 1,
    "description": "",
    "modified": 1507042395
}